Design Route Status
                                               :      # nets :
   ------------------------------------------- : ----------- :
   # of logical nets.......................... :        1956 :
       # of nets not needing routing.......... :         936 :
           # of internally routed nets........ :         936 :
       # of routable nets..................... :        1020 :
           # of fully routed nets............. :        1020 :
       # of nets with routing errors.......... :           0 :
   ------------------------------------------- : ----------- :

