Copyright 1986-2019 Xilinx, Inc. All Rights Reserved.
------------------------------------------------------------------------------------------------------------------------------------------------
| Tool Version : Vivado v.2019.1 (lin64) Build 2552052 Fri May 24 14:47:09 MDT 2019
| Date         : Wed Nov 25 03:03:50 2020
| Host         : temmiepc running 64-bit Ubuntu 20.04.1 LTS
| Command      : report_bus_skew -warn_on_violation -file lab06_bus_skew_routed.rpt -pb lab06_bus_skew_routed.pb -rpx lab06_bus_skew_routed.rpx
| Design       : lab06
| Device       : 7a35t-cpg236
| Speed File   : -1  PRODUCTION 1.23 2018-06-13
------------------------------------------------------------------------------------------------------------------------------------------------

Bus Skew Report

No bus skew constraints

