# compile verilog/system verilog design source files
verilog xil_defaultlib  \
"../../../../lab01.srcs/sources_1/imports/ldlab01_temp/lab1_1.v" \
"../../../../lab01.srcs/sim_1/imports/ldlab01_temp/lab1_1_t.v" \

# compile glbl module
verilog xil_defaultlib "glbl.v"

# Do not sort compile order
nosort
